{
	"info": {
		"_postman_id": "f12029e2-2018-49bd-b590-3ba20ebb0eea",
		"name": "Collection User Manag",
		"schema": "https://schema.getpostman.com/json/collection/v2.1.0/collection.json"
	},
	"item": [
		{
			"name": "Create User",
			"request": {
				"method": "POST",
				"header": [],
				"body": {
					"mode": "raw",
					"raw": "{\"username\": \"haulanhaulan\",\r\n\"password\": \"haulanhaulan\", \r\n\"name\":\"Haulan Nafi'ah\"}",
					"options": {
						"raw": {
							"language": "json"
						}
					}
				},
				"url": {
					"raw": "http://localhost:8089/user",
					"protocol": "http",
					"host": [
						"localhost"
					],
					"port": "8089",
					"path": [
						"user"
					]
				}
			},
			"response": []
		},
		{
			"name": "Update User",
			"request": {
				"method": "PUT",
				"header": [],
				"body": {
					"mode": "raw",
					"raw": "{\"username\": \"Renrentod\",\r\n\"password\": \"reno123444\", \r\n\"name\":\"Muhammad Reno Dimas Pradana\"}",
					"options": {
						"raw": {
							"language": "json"
						}
					}
				},
				"url": {
					"raw": "http://localhost:8089/user/1",
					"protocol": "http",
					"host": [
						"localhost"
					],
					"port": "8089",
					"path": [
						"user",
						"1"
					]
				}
			},
			"response": []
		},
		{
			"name": "Get User By Id",
			"protocolProfileBehavior": {
				"disableBodyPruning": true
			},
			"request": {
				"method": "GET",
				"header": [],
				"body": {
					"mode": "raw",
					"raw": "{\"username\": \"Renrentod\",\r\n\"password\": \"reno123444\", \r\n\"name\":\"Muhammad Reno Dimas Pradana\"}",
					"options": {
						"raw": {
							"language": "json"
						}
					}
				},
				"url": {
					"raw": "http://localhost:8089/user/2",
					"protocol": "http",
					"host": [
						"localhost"
					],
					"port": "8089",
					"path": [
						"user",
						"2"
					]
				}
			},
			"response": []
		},
		{
			"name": "Delete User",
			"request": {
				"method": "DELETE",
				"header": [],
				"body": {
					"mode": "raw",
					"raw": "{\"username\": \"Renrentod\",\r\n\"password\": \"reno123444\", \r\n\"name\":\"Muhammad Reno Dimas Pradana\"}",
					"options": {
						"raw": {
							"language": "json"
						}
					}
				},
				"url": {
					"raw": "http://localhost:8089/user/1",
					"protocol": "http",
					"host": [
						"localhost"
					],
					"port": "8089",
					"path": [
						"user",
						"1"
					]
				}
			},
			"response": []
		},
		{
			"name": "Get All",
			"request": {
				"method": "GET",
				"header": [],
				"url": {
					"raw": "http://localhost:8089/users/5/0",
					"protocol": "http",
					"host": [
						"localhost"
					],
					"port": "8089",
					"path": [
						"users",
						"5",
						"0"
					]
				}
			},
			"response": []
		}
	]
}